<svg width="28" height="28" viewBox="0 0 28 28" fill="none" xmlns="http://www.w3.org/2000/svg">
<path d="M9.09998 2.33333H18.9C22.6333 2.33333 25.6666 5.36667 25.6666 9.1V18.9C25.6666 20.6946 24.9537 22.4158 23.6847 23.6848C22.4157 24.9538 20.6946 25.6667 18.9 25.6667H9.09998C5.36665 25.6667 2.33331 22.6333 2.33331 18.9V9.1C2.33331 7.30537 3.04623 5.58424 4.31522 4.31524C5.58422 3.04625 7.30535 2.33333 9.09998 2.33333ZM8.86665 4.66667C7.75274 4.66667 6.68445 5.10916 5.8968 5.89682C5.10915 6.68447 4.66665 7.75276 4.66665 8.86667V19.1333C4.66665 21.455 6.54498 23.3333 8.86665 23.3333H19.1333C20.2472 23.3333 21.3155 22.8908 22.1032 22.1032C22.8908 21.3155 23.3333 20.2472 23.3333 19.1333V8.86667C23.3333 6.545 21.455 4.66667 19.1333 4.66667H8.86665ZM20.125 6.41667C20.5118 6.41667 20.8827 6.57031 21.1562 6.8438C21.4297 7.11729 21.5833 7.48822 21.5833 7.875C21.5833 8.26177 21.4297 8.63271 21.1562 8.9062C20.8827 9.17969 20.5118 9.33333 20.125 9.33333C19.7382 9.33333 19.3673 9.17969 19.0938 8.9062C18.8203 8.63271 18.6666 8.26177 18.6666 7.875C18.6666 7.48822 18.8203 7.11729 19.0938 6.8438C19.3673 6.57031 19.7382 6.41667 20.125 6.41667ZM14 8.16667C15.5471 8.16667 17.0308 8.78125 18.1248 9.87521C19.2187 10.9692 19.8333 12.4529 19.8333 14C19.8333 15.5471 19.2187 17.0308 18.1248 18.1248C17.0308 19.2188 15.5471 19.8333 14 19.8333C12.4529 19.8333 10.9692 19.2188 9.87519 18.1248C8.78123 17.0308 8.16665 15.5471 8.16665 14C8.16665 12.4529 8.78123 10.9692 9.87519 9.87521C10.9692 8.78125 12.4529 8.16667 14 8.16667ZM14 10.5C13.0717 10.5 12.1815 10.8687 11.5251 11.5251C10.8687 12.1815 10.5 13.0717 10.5 14C10.5 14.9283 10.8687 15.8185 11.5251 16.4749C12.1815 17.1313 13.0717 17.5 14 17.5C14.9282 17.5 15.8185 17.1313 16.4749 16.4749C17.1312 15.8185 17.5 14.9283 17.5 14C17.5 13.0717 17.1312 12.1815 16.4749 11.5251C15.8185 10.8687 14.9282 10.5 14 10.5Z" fill="white"/>
</svg>
